Evaluaciones DT - Ed #5
…
Descriptivos

Ahora pegamos todas las filas

e_totales_ed5 <- rbind(sem1_ed5_clean,sem2_ed5_clean,sem3_ed5_clean,sem4_ed5_clean)
e_totales_ed5

## # A tibble: 54 x 11
##    name       id section  `En términos de a… `Efectividad de… `¿Qué le gustó de…
##    <chr>   <dbl> <chr>    <chr>              <chr>            <chr>             
##  1 VICTO… 148682 LATAM D… Muy efectivo       Muy efectivo     "Como aterrizan l…
##  2 Sofia… 149052 LATAM D… Efectivo           Efectivo         "Interactuar con …
##  3 Alvar… 143160 LATAM D… Efectivo           Muy efectivo     "La cantidad de r…
##  4 Otto … 140366 LATAM D… Muy efectivo       Muy efectivo     "El abordaje de u…
##  5 Guill… 147717 LATAM D… Efectivo           Efectivo          <NA>             
##  6 Agner… 138325 LATAM D… Muy efectivo       Muy efectivo     "La metodología d…
##  7 Marib… 147683 LATAM D… Neutral            Inefectivo       "La interacción c…
##  8 LUIS … 147686 LATAM D… Neutral            Efectivo         "Me gustaron las …
##  9 Rodol… 144272 LATAM D… Efectivo           Efectivo         "Claridad de los …
## 10 GUILL… 148686 LATAM D… Muy efectivo       Muy efectivo     "Me gusto lo didá…
## # … with 44 more rows, and 5 more variables: ¿Cómo podemos mejorar? <chr>,
## #   Semana <chr>, Edición <chr>, Efectividad Modulo Num <dbl>,
## #   Efectividad OH-Webinar Num <dbl>
…
